…
```
## Calculating cluster 11
```

``` r
pbmc_markers %>%
    group_by(cluster) %>%
    dplyr::filter(avg_log2FC > 1)
```

```
## # A tibble: 5,351 × 7
## # Groups:   cluster [12]
##       p_val avg_log2FC pct.1 pct.2 p_val_adj cluster gene     
##       <dbl>      <dbl> <dbl> <dbl>     <dbl> <fct>   <chr>    
##  1 2.81e-17       1.18 0.077 0.036  1.08e-12 0       ITK      
##  2 3.70e-15       1.15 0.067 0.031  1.43e-10 0       LEF1     
##  3 3.23e-14       1.03 0.069 0.033  1.25e- 9 0       LINC00861
##  4 8.43e-13       1.10 0.067 0.033  3.25e- 8 0       LCK      
##  5 2.07e-10       1.08 0.055 0.028  7.99e- 6 0       SESN3    
##  6 5.76e-10       1.05 0.048 0.023  2.22e- 5 0       CD6      
##  7 5.56e- 9       1.02 0.051 0.027  2.15e- 4 0       GIMAP1   
##  8 6.68e- 9       1.13 0.039 0.018  2.58e- 4 0       PRKCQ-AS1
##  9 7.01e- 8       1.09 0.037 0.019  2.71e- 3 0       TSHZ2    
## 10 1.20e- 7       1.40 0.022 0.009  4.63e- 3 0       RNF125   
## # ℹ 5,341 more rows
```
…
```
## Calculating cluster 5
```

``` r
t_markers %>%
  group_by(cluster) %>%
  dplyr::filter(avg_log2FC > 1)
```

```
## # A tibble: 2,733 × 7
## # Groups:   cluster [6]
##        p_val avg_log2FC pct.1 pct.2 p_val_adj cluster gene   
##        <dbl>      <dbl> <dbl> <dbl>     <dbl> <fct>   <chr>  
##  1 0               2.98 0.838 0.159 0         0       GNLY   
##  2 0               2.49 0.788 0.208 0         0       GZMB   
##  3 9.42e-273       5.16 0.391 0.022 3.64e-268 0       CCL3   
##  4 2.43e-262       4.61 0.396 0.029 9.40e-258 0       CCL4   
##  5 5.44e-255       2.79 0.531 0.11  2.10e-250 0       NKG7   
##  6 1.11e-243       2.52 0.549 0.131 4.29e-239 0       PRF1   
##  7 1.41e-172       2.83 0.405 0.091 5.46e-168 0       GADD45B
##  8 1.71e-147       3.45 0.265 0.028 6.62e-143 0       FCER1G 
##  9 2.86e-146       2.12 0.462 0.147 1.11e-141 0       CCL5   
## 10 3.06e-138       1.31 0.74  0.459 1.18e-133 0       NFKBIA 
## # ℹ 2,723 more rows
```
…
