…
``` r
top10 <- pbmc_markers %>%
    group_by(cluster) %>%
    dplyr::filter(avg_log2FC > 1) %>%
    slice_head(n = 10) %>% # take top 10 genes for each cluster
    ungroup()
top10
```

```
## # A tibble: 120 × 8
##    ...1         p_val avg_log2FC pct.1 pct.2 p_val_adj cluster gene     
##    <chr>        <dbl>      <dbl> <dbl> <dbl>     <dbl>   <dbl> <chr>    
##  1 ITK       2.81e-17       1.18 0.077 0.036  1.08e-12       0 ITK      
##  2 LEF1      3.70e-15       1.15 0.067 0.031  1.43e-10       0 LEF1     
##  3 LINC00861 3.23e-14       1.03 0.069 0.033  1.25e- 9       0 LINC00861
##  4 LCK       8.43e-13       1.10 0.067 0.033  3.25e- 8       0 LCK      
##  5 SESN3     2.07e-10       1.08 0.055 0.028  7.99e- 6       0 SESN3    
##  6 CD6       5.76e-10       1.05 0.048 0.023  2.22e- 5       0 CD6      
##  7 GIMAP1    5.56e- 9       1.02 0.051 0.027  2.15e- 4       0 GIMAP1   
##  8 PRKCQ-AS1 6.68e- 9       1.13 0.039 0.018  2.58e- 4       0 PRKCQ-AS1
##  9 TSHZ2     7.01e- 8       1.09 0.037 0.019  2.71e- 3       0 TSHZ2    
## 10 RNF125    1.20e- 7       1.40 0.022 0.009  4.63e- 3       0 RNF125   
## # ℹ 110 more rows
```
…
